<svg width="20" height="18" viewBox="0 0 20 18" fill="none" xmlns="http://www.w3.org/2000/svg">
<path d="M0.73989 1.46739H2.86089L5.88212 12.3016C5.96843 12.6196 6.26439 12.8397 6.59734 12.8397H15.883C16.1789 12.8397 16.4379 12.6685 16.5612 12.3994L19.94 4.69565C20.0387 4.46333 20.014 4.20653 19.8783 3.99864C19.7427 3.79074 19.5084 3.66848 19.2617 3.66848H9.00198C8.59504 3.66848 8.26209 3.99864 8.26209 4.40217C8.26209 4.8057 8.59504 5.13587 9.00198 5.13587H18.1273L15.3897 11.3723H7.15225L4.13107 0.538057C4.04476 0.220109 3.7488 0 3.41585 0H0.73989C0.33295 0 0 0.330163 0 0.733695C0 1.13723 0.33295 1.46739 0.73989 1.46739Z" fill="white"/>
<path d="M5.89445 18C6.81931 18 7.57152 17.2541 7.57152 16.337C7.57152 15.4199 6.81931 14.674 5.89445 14.674C4.96958 14.674 4.21738 15.4198 4.21738 16.3369C4.21738 17.2541 4.96958 18 5.89445 18Z" fill="white"/>
<path d="M16.3763 18C16.4132 18 16.4626 18 16.4996 18C16.9435 17.9633 17.3504 17.7677 17.6464 17.4253C17.9423 17.0951 18.078 16.6671 18.0533 16.2147C17.9917 15.3098 17.1901 14.6127 16.2653 14.6739C15.3404 14.7351 14.6498 15.5421 14.7115 16.447C14.7731 17.3152 15.5007 18 16.3763 18Z" fill="white"/>
</svg>
