<svg width="29" height="32" viewBox="0 0 29 32" fill="none" xmlns="http://www.w3.org/2000/svg">
<path d="M18.0444 16L21.75 12.32C22.2333 13.4401 22.3944 14.72 22.3944 16C22.3944 17.28 22.0722 18.56 21.75 19.68L18.0444 16ZM26.5833 24.48L24.65 22.4C25.6167 20.48 26.2611 18.24 26.2611 16C26.2611 13.76 25.6167 11.52 24.65 9.6L26.5833 7.68C28.1944 10.08 29 13.1199 29 16.1599C29 19.1999 28.1944 22.08 26.5833 24.48ZM20.4611 22.88L11.2778 32H9.66667V19.84L2.25556 27.2L0 24.96L9.02222 16L0 7.04L2.25556 4.8L9.66667 12.16V0H11.2778L20.4611 9.12L13.5333 16L20.4611 22.88ZM12.8889 25.92L15.95 22.88L12.8889 19.84V25.92ZM15.95 9.12L12.8889 6.08V12.16L15.95 9.12Z" fill="#24AEF2"/>
</svg>
