<?xml version="1.0" encoding="utf-8"?>
<!-- Generator: Adobe Illustrator 21.1.0, SVG Export Plug-In . SVG Version: 6.00 Build 0)  -->
<svg version="1.1" id="Слой_1" xmlns="http://www.w3.org/2000/svg" xmlns:xlink="http://www.w3.org/1999/xlink" x="0px" y="0px"
	 viewBox="0 0 12 10" style="enable-background:new 0 0 12 10;" xml:space="preserve">
<style type="text/css">
	.st0{fill:#24AEF2;}
</style>
<path class="st0" d="M11.8,0.2C11.6,0,11.2-0.1,11,0.1L5,5.1L1,2.7C0.7,2.5,0.4,2.6,0.2,2.8C0,3,0,3.4,0.1,3.6l4.3,6.1
	C4.5,9.9,4.7,10,4.9,10c0.2,0,0.4-0.1,0.5-0.3L11.9,1C12.1,0.7,12,0.4,11.8,0.2z"/>
</svg>
