<svg width="47" height="38" viewBox="0 0 47 38" fill="none" xmlns="http://www.w3.org/2000/svg">
<path d="M36.0705 21.6L13.0705 8.4C8.97048 6 3.57048 7.4 1.17048 11.6C-1.22952 15.8 0.170477 21.1 4.37048 23.6L27.2705 36.8C31.4705 39.2 36.7705 37.8 39.2705 33.6C41.7705 29.4 40.2705 24 36.0705 21.6ZM23.5705 22.7L19.3705 27.8C19.1705 27.9 19.0705 28 18.9705 28C18.8705 28 18.6705 27.9 18.5705 27.9C18.2705 27.8 18.1705 27.5 18.1705 27.1L19.4705 23.4L18.1705 23C18.0705 23 17.7705 22.9 17.7705 22.6C17.7705 22.3 17.7705 22.1 17.8705 21.9L21.6705 17.4C21.7705 17.1 22.1705 17 22.4705 17.1C22.7705 17.2 22.8705 17.6 22.7705 17.9L21.8705 21.2L23.3705 21.7C23.4705 21.7 23.7705 21.8 23.7705 22.1C23.8705 22.3 23.6705 22.5 23.5705 22.7Z" fill="#24AEF2"/>
<path d="M19.0706 13C22.6604 13 25.5706 10.0899 25.5706 6.5C25.5706 2.91015 22.6604 0 19.0706 0C15.4807 0 12.5706 2.91015 12.5706 6.5C12.5706 10.0899 15.4807 13 19.0706 13Z" fill="#24AEF2"/>
<path d="M40.0706 13C43.6604 13 46.5706 10.0899 46.5706 6.5C46.5706 2.91015 43.6604 0 40.0706 0C36.4807 0 33.5706 2.91015 33.5706 6.5C33.5706 10.0899 36.4807 13 40.0706 13Z" fill="#24AEF2"/>
</svg>
