<?xml version="1.0" encoding="utf-8"?>
<!-- Generator: Adobe Illustrator 21.1.0, SVG Export Plug-In . SVG Version: 6.00 Build 0)  -->
<svg version="1.1" id="Слой_1" xmlns="http://www.w3.org/2000/svg" xmlns:xlink="http://www.w3.org/1999/xlink" x="0px" y="0px"
	 viewBox="0 0 21 21" style="enable-background:new 0 0 21 21;" xml:space="preserve">
<style type="text/css">
	.st0{fill:#24AEF2;}
</style>
<path class="st0" d="M0,1.2L1.2,0l9.3,9.3L19.8,0L21,1.2l-9.3,9.3l9.3,9.3L19.8,21l-9.3-9.3L1.2,21L0,19.8l9.3-9.3L0,1.2z"/>
</svg>
