<svg width="15" height="15" viewBox="0 0 15 15" fill="none" xmlns="http://www.w3.org/2000/svg">
<path fill-rule="evenodd" clip-rule="evenodd" d="M0 7.5C0 11.6321 3.35492 15 7.5 15C11.6451 15 15 11.6321 15 7.5C15 3.35492 11.6321 0 7.5 0C3.36786 0 0 3.35492 0 7.5ZM1.04919 7.5C1.04919 3.93784 3.93781 1.04922 7.5 1.04922C11.0622 1.04922 13.9508 3.93784 13.9508 7.5C13.9508 11.0492 11.0622 13.9508 7.5 13.9508C3.93781 13.9508 1.04919 11.0622 1.04919 7.5ZM4.34973 8.38083H7.84973C8.14764 8.38083 8.3808 8.14764 8.3808 7.84973V3.23575C8.3808 2.93781 8.14764 2.70465 7.84973 2.70465C7.55176 2.70465 7.3186 2.93781 7.3186 3.23575V7.31863H4.34973C4.05176 7.31863 3.8186 7.55179 3.8186 7.84973C3.8186 8.14764 4.05176 8.38083 4.34973 8.38083Z" fill="#A8ACB1"/>
</svg>
