<svg width="27" height="16" viewBox="0 0 27 16" fill="none" xmlns="http://www.w3.org/2000/svg">
<path d="M0.450001 2.42269H4.3155V0.989145C4.3155 0.442845 4.73254 0 5.247 0H18.675C19.1895 0 19.6065 0.442845 19.6065 0.989145V3.97092H23.2335C23.3949 3.97026 23.5443 4.06141 23.625 4.20984L25.452 7.59778H26.55C26.7985 7.59778 27 7.81174 27 8.07563V13.4275C27 13.6914 26.7985 13.9054 26.55 13.9054H25.236C24.9856 15.3028 23.7158 16.22 22.3999 15.9541C21.4217 15.7565 20.6566 14.9441 20.4705 13.9054H19.1565C19.0891 13.9035 19.023 13.8855 18.963 13.8528C18.8718 13.8864 18.776 13.9041 18.6795 13.9054H12.7935C12.5431 15.3028 11.2733 16.22 9.95737 15.9541C8.97919 15.7565 8.21413 14.9441 8.028 13.9054H5.247C4.73254 13.9054 4.3155 13.4625 4.3155 12.9162V8.55348H1.4085C1.15999 8.55348 0.958501 8.33952 0.958501 8.07563C0.958501 7.81174 1.15999 7.59778 1.4085 7.59778H4.3155V5.96354H3.807C3.55849 5.96354 3.357 5.74958 3.357 5.48569C3.357 5.2218 3.55849 5.00784 3.807 5.00784H4.3155V3.37838H0.450001C0.201488 3.37838 7.15256e-07 3.16443 7.15256e-07 2.90054C7.15256e-07 2.63664 0.201488 2.42269 0.450001 2.42269ZM22.9725 4.94572H19.6065V7.59778H24.4125L22.9725 4.94572ZM22.851 15.0474C22.8525 15.0474 22.854 15.0474 22.8555 15.0474H22.851C23.696 15.0474 24.381 14.32 24.381 13.4227C24.381 12.5255 23.696 11.7981 22.851 11.7981C22.006 11.7981 21.321 12.5255 21.321 13.4227C21.321 14.32 22.006 15.0474 22.851 15.0474ZM20.4705 12.9449C20.7209 11.5475 21.9907 10.6303 23.3066 10.8961C24.2848 11.0938 25.0499 11.9062 25.236 12.9449H26.1V8.55348H19.6065V12.9449H20.4705ZM10.404 15.0474C10.4055 15.0474 10.407 15.0474 10.4085 15.0474H10.404C11.249 15.0474 11.934 14.32 11.934 13.4227C11.934 12.5255 11.249 11.7981 10.404 11.7981C9.55901 11.7981 8.874 12.5255 8.874 13.4227C8.874 14.32 9.55901 15.0474 10.404 15.0474ZM5.211 2.4418H7.362C7.61051 2.4418 7.812 2.65576 7.812 2.91965C7.812 3.18354 7.61051 3.3975 7.362 3.3975H5.22V5.01262H10.7235C10.972 5.01262 11.1735 5.22658 11.1735 5.49047C11.1735 5.75436 10.972 5.96832 10.7235 5.96832H5.229V7.60256H8.325C8.57351 7.60292 8.77472 7.81717 8.77438 8.08106C8.77405 8.34448 8.57306 8.55789 8.325 8.55825H5.238V12.9497H8.0235C8.27387 11.5523 9.54366 10.635 10.8596 10.9009C11.8378 11.0986 12.6029 11.911 12.789 12.9497L18.702 12.921L18.6705 0.974809L5.211 1.00826V2.4418Z" fill="#A8ACB1"/>
</svg>
